(module PCIE-36-NOPEG (layer F.Cu) (tedit 5A621EAE)
  (fp_text reference >NAME (at -15.24 -6.35) (layer F.SilkS)
    (effects (font (size 1.2065 1.2065) (thickness 0.1016)) (justify left))
  )
  (fp_text value >VALUE (at -15.24 6.35) (layer F.SilkS)
    (effects (font (size 1.2065 1.2065) (thickness 0.1016)) (justify left))
  )
  (fp_line (start -14.65 -3.6) (end -11.5 -3.6) (layer F.SilkS) (width 0.127))
  (fp_line (start -11.5 -3.6) (end -1.8 -3.6) (layer Dwgs.User) (width 0.127))
  (fp_line (start -1.8 -3.6) (end 0.5 -3.6) (layer F.SilkS) (width 0.127))
  (fp_line (start 0.5 -3.6) (end 8.2 -3.6) (layer Dwgs.User) (width 0.127))
  (fp_line (start 8.2 -3.6) (end 10.35 -3.6) (layer F.SilkS) (width 0.127))
  (fp_line (start 10.35 -3.6) (end 10.35 3.6) (layer F.SilkS) (width 0.127))
  (fp_line (start 10.35 3.6) (end 8.2 3.6) (layer F.SilkS) (width 0.127))
  (fp_line (start 8.2 3.6) (end 0.5 3.6) (layer Dwgs.User) (width 0.127))
  (fp_line (start 0.5 3.6) (end -1.85 3.6) (layer F.SilkS) (width 0.127))
  (fp_line (start -1.85 3.6) (end -11.55 3.6) (layer Dwgs.User) (width 0.127))
  (fp_line (start -11.55 3.6) (end -14.65 3.6) (layer F.SilkS) (width 0.127))
  (fp_line (start -14.65 3.6) (end -14.65 -3.6) (layer F.SilkS) (width 0.127))
  (fp_poly (pts (xy -12.65 1.25) (xy -1.15 1.25) (xy -1.15 -1.25) (xy -12.65 -1.25)) (layer Dwgs.User) (width 0))
  (fp_poly (pts (xy 0.63 1.25) (xy 8.28 1.25) (xy 8.28 -1.25) (xy 0.63 -1.25)) (layer Dwgs.User) (width 0))
  (fp_circle (center 9.15 0) (end 10.225 0) (layer Dwgs.User) (width 0.15))
  (fp_circle (center 0 0) (end 1.075 0) (layer Dwgs.User) (width 0.15))
  (pad A11 thru_hole circle (at -1.65 -1.25) (size 1.208 1.208) (drill 0.7) (layers *.Cu *.Mask))
  (pad A9 thru_hole circle (at -3.65 -1.25) (size 1.208 1.208) (drill 0.7) (layers *.Cu *.Mask))
  (pad A7 thru_hole circle (at -5.65 -1.25) (size 1.208 1.208) (drill 0.7) (layers *.Cu *.Mask))
  (pad A5 thru_hole circle (at -7.65 -1.25) (size 1.208 1.208) (drill 0.7) (layers *.Cu *.Mask))
  (pad A3 thru_hole circle (at -9.65 -1.25) (size 1.208 1.208) (drill 0.7) (layers *.Cu *.Mask))
  (pad A1 thru_hole circle (at -11.65 -1.25) (size 1.208 1.208) (drill 0.7) (layers *.Cu *.Mask))
  (pad A2 thru_hole circle (at -10.65 -3.25) (size 1.208 1.208) (drill 0.7) (layers *.Cu *.Mask))
  (pad A4 thru_hole circle (at -8.65 -3.25) (size 1.208 1.208) (drill 0.7) (layers *.Cu *.Mask))
  (pad A6 thru_hole circle (at -6.65 -3.25) (size 1.208 1.208) (drill 0.7) (layers *.Cu *.Mask))
  (pad A8 thru_hole circle (at -4.65 -3.25) (size 1.208 1.208) (drill 0.7) (layers *.Cu *.Mask))
  (pad A10 thru_hole circle (at -2.65 -3.25) (size 1.208 1.208) (drill 0.7) (layers *.Cu *.Mask))
  (pad B1 thru_hole circle (at -11.65 1.25 180) (size 1.208 1.208) (drill 0.7) (layers *.Cu *.Mask))
  (pad B3 thru_hole circle (at -9.65 1.25 180) (size 1.208 1.208) (drill 0.7) (layers *.Cu *.Mask))
  (pad B5 thru_hole circle (at -7.65 1.25 180) (size 1.208 1.208) (drill 0.7) (layers *.Cu *.Mask))
  (pad B7 thru_hole circle (at -5.65 1.25 180) (size 1.208 1.208) (drill 0.7) (layers *.Cu *.Mask))
  (pad B9 thru_hole circle (at -3.65 1.25 180) (size 1.208 1.208) (drill 0.7) (layers *.Cu *.Mask))
  (pad B11 thru_hole circle (at -1.65 1.25 180) (size 1.208 1.208) (drill 0.7) (layers *.Cu *.Mask))
  (pad B10 thru_hole circle (at -2.65 3.25 180) (size 1.208 1.208) (drill 0.7) (layers *.Cu *.Mask))
  (pad B8 thru_hole circle (at -4.65 3.25 180) (size 1.208 1.208) (drill 0.7) (layers *.Cu *.Mask))
  (pad B6 thru_hole circle (at -6.65 3.25 180) (size 1.208 1.208) (drill 0.7) (layers *.Cu *.Mask))
  (pad B4 thru_hole circle (at -8.65 3.25 180) (size 1.208 1.208) (drill 0.7) (layers *.Cu *.Mask))
  (pad B2 thru_hole circle (at -10.65 3.25 180) (size 1.208 1.208) (drill 0.7) (layers *.Cu *.Mask))
  (pad A18 thru_hole circle (at 7.35 -3.25) (size 1.208 1.208) (drill 0.7) (layers *.Cu *.Mask))
  (pad A16 thru_hole circle (at 5.35 -3.25) (size 1.208 1.208) (drill 0.7) (layers *.Cu *.Mask))
  (pad A14 thru_hole circle (at 3.35 -3.25) (size 1.208 1.208) (drill 0.7) (layers *.Cu *.Mask))
  (pad A12 thru_hole circle (at 1.35 -3.25) (size 1.208 1.208) (drill 0.7) (layers *.Cu *.Mask))
  (pad A13 thru_hole circle (at 2.35 -1.25) (size 1.208 1.208) (drill 0.7) (layers *.Cu *.Mask))
  (pad A15 thru_hole circle (at 4.35 -1.25) (size 1.208 1.208) (drill 0.7) (layers *.Cu *.Mask))
  (pad A17 thru_hole circle (at 6.35 -1.25) (size 1.208 1.208) (drill 0.7) (layers *.Cu *.Mask))
  (pad B12 thru_hole circle (at 1.35 3.25 180) (size 1.208 1.208) (drill 0.7) (layers *.Cu *.Mask))
  (pad B14 thru_hole circle (at 3.35 3.25 180) (size 1.208 1.208) (drill 0.7) (layers *.Cu *.Mask))
  (pad B16 thru_hole circle (at 5.35 3.25 180) (size 1.208 1.208) (drill 0.7) (layers *.Cu *.Mask))
  (pad B18 thru_hole circle (at 7.35 3.25 180) (size 1.208 1.208) (drill 0.7) (layers *.Cu *.Mask))
  (pad B17 thru_hole circle (at 6.35 1.25 180) (size 1.208 1.208) (drill 0.7) (layers *.Cu *.Mask))
  (pad B15 thru_hole circle (at 4.35 1.25 180) (size 1.208 1.208) (drill 0.7) (layers *.Cu *.Mask))
  (pad B13 thru_hole circle (at 2.35 1.25 180) (size 1.208 1.208) (drill 0.7) (layers *.Cu *.Mask))
  (pad "" np_thru_hole circle (at 0 0) (size 2.15 2.15) (drill 2.15) (layers *.Cu *.Mask))
  (pad "" np_thru_hole circle (at 9.15 0) (size 2.15 2.15) (drill 2.15) (layers *.Cu *.Mask))
)
