EESchema Schematic File Version 2
LIBS:power
LIBS:device
LIBS:switches
LIBS:relays
LIBS:motors
LIBS:transistors
LIBS:conn
LIBS:linear
LIBS:regul
LIBS:74xx
LIBS:cmos4000
LIBS:adc-dac
LIBS:memory
LIBS:xilinx
LIBS:microcontrollers
LIBS:dsp
LIBS:microchip
LIBS:analog_switches
LIBS:motorola
LIBS:texas
LIBS:intel
LIBS:audio
LIBS:interface
LIBS:digital-audio
LIBS:philips
LIBS:display
LIBS:cypress
LIBS:siliconi
LIBS:opto
LIBS:atmel
LIBS:contrib
LIBS:valves
LIBS:ar0330cm
LIBS:_linear-regulators
LIBS:z-turn-lite
LIBS:pcie-36-axiom
LIBS:axiom-shield
LIBS:pmod
LIBS:voltage-translators
LIBS:ccd_pcb-cache
EELAYER 25 0
EELAYER END
$Descr A3 16535 11693
encoding utf-8
Sheet 1 1
Title "AXIOM micro main board"
Date ""
Rev "0.1"
Comp "Apertus"
Comment1 ""
Comment2 ""
Comment3 ""
Comment4 ""
$EndDescr
$Comp
L C C1
U 1 1 5A472681
P 6000 2350
F 0 "C1" H 6025 2450 50  0000 L CNN
F 1 "1µF" H 6025 2250 50  0000 L CNN
F 2 "Capacitors_SMD:C_0805_HandSoldering" H 6038 2200 50  0001 C CNN
F 3 "" H 6000 2350 50  0001 C CNN
	1    6000 2350
	1    0    0    -1  
$EndComp
$Comp
L C C2
U 1 1 5A472708
P 6200 2350
F 0 "C2" H 6225 2450 50  0000 L CNN
F 1 ".1µF" H 6225 2250 50  0000 L CNN
F 2 "Capacitors_SMD:C_0805_HandSoldering" H 6238 2200 50  0001 C CNN
F 3 "" H 6200 2350 50  0001 C CNN
	1    6200 2350
	1    0    0    -1  
$EndComp
Text Notes 6000 750  0    60   ~ 0
Power\n
$Comp
L C C3
U 1 1 5A47430B
P 6550 2350
F 0 "C3" H 6575 2450 50  0000 L CNN
F 1 "1µF" H 6575 2250 50  0000 L CNN
F 2 "Capacitors_SMD:C_0805_HandSoldering" H 6588 2200 50  0001 C CNN
F 3 "" H 6550 2350 50  0001 C CNN
	1    6550 2350
	1    0    0    -1  
$EndComp
$Comp
L C C4
U 1 1 5A474317
P 6750 2350
F 0 "C4" H 6775 2450 50  0000 L CNN
F 1 ".1µF" H 6775 2250 50  0000 L CNN
F 2 "Capacitors_SMD:C_0805_HandSoldering" H 6788 2200 50  0001 C CNN
F 3 "" H 6750 2350 50  0001 C CNN
	1    6750 2350
	1    0    0    -1  
$EndComp
$Comp
L C C5
U 1 1 5A474379
P 7000 2350
F 0 "C5" H 7025 2450 50  0000 L CNN
F 1 "1µF" H 7025 2250 50  0000 L CNN
F 2 "Capacitors_SMD:C_0805_HandSoldering" H 7038 2200 50  0001 C CNN
F 3 "" H 7000 2350 50  0001 C CNN
	1    7000 2350
	1    0    0    -1  
$EndComp
$Comp
L C C7
U 1 1 5A474385
P 7200 2350
F 0 "C7" H 7225 2450 50  0000 L CNN
F 1 ".1µF" H 7225 2250 50  0000 L CNN
F 2 "Capacitors_SMD:C_0805_HandSoldering" H 7238 2200 50  0001 C CNN
F 3 "" H 7200 2350 50  0001 C CNN
	1    7200 2350
	1    0    0    -1  
$EndComp
$Comp
L C C10
U 1 1 5A4745A6
P 7750 2350
F 0 "C10" H 7775 2450 50  0000 L CNN
F 1 "1µF" H 7775 2250 50  0000 L CNN
F 2 "Capacitors_SMD:C_0805_HandSoldering" H 7788 2200 50  0001 C CNN
F 3 "" H 7750 2350 50  0001 C CNN
	1    7750 2350
	1    0    0    -1  
$EndComp
$Comp
L C C11
U 1 1 5A4745B2
P 7950 2350
F 0 "C11" H 7975 2450 50  0000 L CNN
F 1 ".1µF" H 7975 2250 50  0000 L CNN
F 2 "Capacitors_SMD:C_0805_HandSoldering" H 7988 2200 50  0001 C CNN
F 3 "" H 7950 2350 50  0001 C CNN
	1    7950 2350
	1    0    0    -1  
$EndComp
Text Label 7950 1800 3    60   ~ 0
VDD_IO
$Comp
L C C13
U 1 1 5A474623
P 8300 2350
F 0 "C13" H 8325 2450 50  0000 L CNN
F 1 "1µF" H 8325 2250 50  0000 L CNN
F 2 "Capacitors_SMD:C_0805_HandSoldering" H 8338 2200 50  0001 C CNN
F 3 "" H 8300 2350 50  0001 C CNN
	1    8300 2350
	1    0    0    -1  
$EndComp
$Comp
L C C15
U 1 1 5A47462F
P 8500 2350
F 0 "C15" H 8525 2450 50  0000 L CNN
F 1 ".1µF" H 8525 2250 50  0000 L CNN
F 2 "Capacitors_SMD:C_0805_HandSoldering" H 8538 2200 50  0001 C CNN
F 3 "" H 8500 2350 50  0001 C CNN
	1    8500 2350
	1    0    0    -1  
$EndComp
$Comp
L C C16
U 1 1 5A474685
P 8850 2350
F 0 "C16" H 8875 2450 50  0000 L CNN
F 1 "1µF" H 8875 2250 50  0000 L CNN
F 2 "Capacitors_SMD:C_0805_HandSoldering" H 8888 2200 50  0001 C CNN
F 3 "" H 8850 2350 50  0001 C CNN
	1    8850 2350
	1    0    0    -1  
$EndComp
$Comp
L C C17
U 1 1 5A474691
P 9050 2350
F 0 "C17" H 9075 2450 50  0000 L CNN
F 1 ".1µF" H 9075 2250 50  0000 L CNN
F 2 "Capacitors_SMD:C_0805_HandSoldering" H 9088 2200 50  0001 C CNN
F 3 "" H 9050 2350 50  0001 C CNN
	1    9050 2350
	1    0    0    -1  
$EndComp
$Comp
L C C18
U 1 1 5A475A62
P 9400 2350
F 0 "C18" H 9425 2450 50  0000 L CNN
F 1 "1µF" H 9425 2250 50  0000 L CNN
F 2 "Capacitors_SMD:C_0805_HandSoldering" H 9438 2200 50  0001 C CNN
F 3 "" H 9400 2350 50  0001 C CNN
	1    9400 2350
	1    0    0    -1  
$EndComp
$Comp
L C C19
U 1 1 5A475A6E
P 9600 2350
F 0 "C19" H 9625 2450 50  0000 L CNN
F 1 ".1µF" H 9625 2250 50  0000 L CNN
F 2 "Capacitors_SMD:C_0805_HandSoldering" H 9638 2200 50  0001 C CNN
F 3 "" H 9600 2350 50  0001 C CNN
	1    9600 2350
	1    0    0    -1  
$EndComp
$Comp
L ADP150-2.8 U2
U 1 1 5A4761C7
P 7700 1000
F 0 "U2" H 7950 750 59  0000 C CNN
F 1 "ADP150-2.8" H 7700 1350 59  0000 C CNN
F 2 "TO_SOT_Packages_SMD:TSOT-23-5" H 7600 1000 39  0001 C CNN
F 3 "" H 7600 1000 39  0000 C CNN
	1    7700 1000
	1    0    0    -1  
$EndComp
$Comp
L C C14
U 1 1 5A478450
P 8450 950
F 0 "C14" H 8475 1050 50  0000 L CNN
F 1 "1µF" H 8475 850 50  0000 L CNN
F 2 "Capacitors_SMD:C_0805_HandSoldering" H 8488 800 50  0001 C CNN
F 3 "" H 8450 950 50  0001 C CNN
	1    8450 950 
	1    0    0    -1  
$EndComp
$Comp
L Z-TURN-LITE A1
U 1 1 5A47B65D
P 3000 8150
F 0 "A1" H 3100 8050 60  0000 C CNN
F 1 "Z-TURN-LITE" H 3100 8150 60  0000 C CNN
F 2 "parts:CONN_BTH-060-XX-X-D-LC" H 3250 6750 60  0001 C CNN
F 3 "" H 3250 6750 60  0001 C CNN
	1    3000 8150
	-1   0    0    1   
$EndComp
Text Notes 750  750  0    60   ~ 0
CCD\n
Text Notes 750  11050 0    60   ~ 0
Z-Turn-Lite\n
$Comp
L GNDD #PWR01
U 1 1 5A49EF80
P 4500 10750
F 0 "#PWR01" H 4500 10500 50  0001 C CNN
F 1 "GNDD" H 4500 10625 50  0000 C CNN
F 2 "" H 4500 10750 50  0001 C CNN
F 3 "" H 4500 10750 50  0001 C CNN
	1    4500 10750
	1    0    0    -1  
$EndComp
$Comp
L R R1
U 1 1 5A4A8131
P 1650 2050
F 0 "R1" V 1730 2050 50  0000 C CNN
F 1 "1.5k" V 1650 2050 50  0000 C CNN
F 2 "Resistors_SMD:R_0603_HandSoldering" V 1580 2050 50  0001 C CNN
F 3 "" H 1650 2050 50  0001 C CNN
	1    1650 2050
	1    0    0    -1  
$EndComp
$Comp
L R R2
U 1 1 5A4A8132
P 1850 2050
F 0 "R2" V 1930 2050 50  0000 C CNN
F 1 "1.5k " V 1850 2050 50  0000 C CNN
F 2 "Resistors_SMD:R_0603_HandSoldering" V 1780 2050 50  0001 C CNN
F 3 "" H 1850 2050 50  0001 C CNN
	1    1850 2050
	1    0    0    -1  
$EndComp
$Comp
L GNDD #PWR02
U 1 1 5A4A8133
P 1950 1200
F 0 "#PWR02" H 1950 950 50  0001 C CNN
F 1 "GNDD" H 1950 1075 50  0000 C CNN
F 2 "" H 1950 1200 50  0001 C CNN
F 3 "" H 1950 1200 50  0001 C CNN
	1    1950 1200
	1    0    0    -1  
$EndComp
$Comp
L GNDA #PWR03
U 1 1 5A4A8135
P 1350 4150
F 0 "#PWR03" H 1350 3900 50  0001 C CNN
F 1 "GNDA" H 1350 4000 50  0000 C CNN
F 2 "" H 1350 4150 50  0001 C CNN
F 3 "" H 1350 4150 50  0001 C CNN
	1    1350 4150
	1    0    0    -1  
$EndComp
$Comp
L GNDA #PWR04
U 1 1 5A4A8137
P 6000 2500
F 0 "#PWR04" H 6000 2250 50  0001 C CNN
F 1 "GNDA" H 6000 2350 50  0000 C CNN
F 2 "" H 6000 2500 50  0001 C CNN
F 3 "" H 6000 2500 50  0001 C CNN
	1    6000 2500
	1    0    0    -1  
$EndComp
Text Notes 6000 750  0    60   ~ 0
Power\n
Text Label 6200 1950 3    60   ~ 0
VAA
Text Label 1500 4250 0    60   ~ 0
VAA
Text Label 1500 4050 0    60   ~ 0
VDD_PLL
Text Label 1500 4350 0    60   ~ 0
VAA_PIX
Text Label 1500 4550 0    60   ~ 0
VDD_HISPI
Text Label 1500 4650 0    60   ~ 0
VDD_HISPI_TX
Text Label 1500 3300 0    60   ~ 0
VDD
$Comp
L GNDA #PWR05
U 1 1 5A4A813A
P 6550 2500
F 0 "#PWR05" H 6550 2250 50  0001 C CNN
F 1 "GNDA" H 6550 2350 50  0000 C CNN
F 2 "" H 6550 2500 50  0001 C CNN
F 3 "" H 6550 2500 50  0001 C CNN
	1    6550 2500
	1    0    0    -1  
$EndComp
Text Label 6750 1750 3    60   ~ 0
VAA_PIX
$Comp
L GNDD #PWR06
U 1 1 5A4A813D
P 7000 2500
F 0 "#PWR06" H 7000 2250 50  0001 C CNN
F 1 "GNDD" H 7000 2350 50  0000 C CNN
F 2 "" H 7000 2500 50  0001 C CNN
F 3 "" H 7000 2500 50  0001 C CNN
	1    7000 2500
	1    0    0    -1  
$EndComp
Text Label 7200 1950 3    60   ~ 0
VDD
$Comp
L GNDD #PWR07
U 1 1 5A4A8140
P 7750 2500
F 0 "#PWR07" H 7750 2250 50  0001 C CNN
F 1 "GNDD" H 7750 2350 50  0000 C CNN
F 2 "" H 7750 2500 50  0001 C CNN
F 3 "" H 7750 2500 50  0001 C CNN
	1    7750 2500
	1    0    0    -1  
$EndComp
$Comp
L GNDD #PWR08
U 1 1 5A4A8143
P 8300 2500
F 0 "#PWR08" H 8300 2250 50  0001 C CNN
F 1 "GNDD" H 8300 2350 50  0000 C CNN
F 2 "" H 8300 2500 50  0001 C CNN
F 3 "" H 8300 2500 50  0001 C CNN
	1    8300 2500
	1    0    0    -1  
$EndComp
Text Label 8500 1650 3    60   ~ 0
VDD_HISPI
$Comp
L GNDD #PWR09
U 1 1 5A4A8146
P 8850 2500
F 0 "#PWR09" H 8850 2250 50  0001 C CNN
F 1 "GNDD" H 8850 2350 50  0000 C CNN
F 2 "" H 8850 2500 50  0001 C CNN
F 3 "" H 8850 2500 50  0001 C CNN
	1    8850 2500
	1    0    0    -1  
$EndComp
Text Label 9050 1500 3    60   ~ 0
VDD_HISPI_TX
$Comp
L GNDD #PWR010
U 1 1 5A4A8149
P 9400 2500
F 0 "#PWR010" H 9400 2250 50  0001 C CNN
F 1 "GNDD" H 9400 2350 50  0000 C CNN
F 2 "" H 9400 2500 50  0001 C CNN
F 3 "" H 9400 2500 50  0001 C CNN
	1    9400 2500
	1    0    0    -1  
$EndComp
Text Label 9600 1750 3    60   ~ 0
VDD_PLL
$Comp
L GNDD #PWR011
U 1 1 5A4A814C
P 7700 1500
F 0 "#PWR011" H 7700 1250 50  0001 C CNN
F 1 "GNDD" H 7700 1375 50  0000 C CNN
F 2 "" H 7700 1500 50  0001 C CNN
F 3 "" H 7700 1500 50  0001 C CNN
	1    7700 1500
	1    0    0    -1  
$EndComp
Text Label 8650 800  2    60   ~ 0
2V8
Text Label 6000 1950 3    60   ~ 0
2V8
Text Label 6550 1950 3    60   ~ 0
2V8
Text Label 9400 1950 3    60   ~ 0
2V8
$Comp
L GNDD #PWR012
U 1 1 5A4A814E
P 7100 1300
F 0 "#PWR012" H 7100 1050 50  0001 C CNN
F 1 "GNDD" H 7100 1175 50  0000 C CNN
F 2 "" H 7100 1300 50  0001 C CNN
F 3 "" H 7100 1300 50  0001 C CNN
	1    7100 1300
	1    0    0    -1  
$EndComp
$Comp
L GNDD #PWR013
U 1 1 5A4A8150
P 8450 1100
F 0 "#PWR013" H 8450 850 50  0001 C CNN
F 1 "GNDD" H 8450 975 50  0000 C CNN
F 2 "" H 8450 1100 50  0001 C CNN
F 3 "" H 8450 1100 50  0001 C CNN
	1    8450 1100
	1    0    0    -1  
$EndComp
Text Label 1500 3650 0    60   ~ 0
VDD_IO
Text Label 8300 1950 3    60   ~ 0
1V8
Text Label 8850 1950 3    60   ~ 0
1V8
Text Label 7000 1600 3    60   ~ 0
1V8
Text Label 1750 5150 0    60   ~ 0
5V
Text Label 7100 600  3    60   ~ 0
5V
Text Notes 750  750  0    60   ~ 0
CCD\n
Text Notes 750  11050 0    60   ~ 0
Z-Turn-Lite\n
$Comp
L PCIe-36-Axiom J2
U 1 1 5A47BF85
P 7700 6800
F 0 "J2" H 7650 6825 60  0000 C CNN
F 1 "Extension South" H 7650 6975 60  0000 C CNN
F 2 "pcie:PCIE-36-NOPEG" H 7350 7200 60  0001 C CNN
F 3 "" H 7350 7200 60  0001 C CNN
	1    7700 6800
	1    0    0    -1  
$EndComp
$Comp
L GNDD #PWR014
U 1 1 5A47BF90
P 9150 7650
F 0 "#PWR014" H 9150 7400 50  0001 C CNN
F 1 "GNDD" H 9150 7525 50  0000 C CNN
F 2 "" H 9150 7650 50  0001 C CNN
F 3 "" H 9150 7650 50  0001 C CNN
	1    9150 7650
	1    0    0    -1  
$EndComp
Text Label 6150 6500 0    60   ~ 0
5V
Text GLabel 6850 6650 0    60   Input ~ 0
IO7_S
Text GLabel 6850 6750 0    60   Input ~ 0
IO6_S
Text GLabel 6850 6850 0    60   Input ~ 0
IO5_S
Text GLabel 6850 6950 0    60   Input ~ 0
IO4_S
Text GLabel 6850 7050 0    60   Input ~ 0
IO3_S
Text GLabel 6850 7150 0    60   Input ~ 0
IO2_S
Text GLabel 6850 7250 0    60   Input ~ 0
IO1_S
Text GLabel 6850 7350 0    60   Input ~ 0
IO0_S
Text GLabel 6850 7550 0    60   Input ~ 0
SCL_S
Text GLabel 6850 7650 0    60   Input ~ 0
SDA_S
Text GLabel 6850 6000 0    60   Input ~ 0
LVDSs5_N
Text GLabel 6850 6100 0    60   Input ~ 0
LVDSs5_P
Text GLabel 8550 6000 2    60   Input ~ 0
LVDSs4_N
Text GLabel 8550 6100 2    60   Input ~ 0
LVDSs4_P
Text GLabel 8550 6300 2    60   Input ~ 0
LVDSs3_N
Text GLabel 8550 6400 2    60   Input ~ 0
LVDSs3_P
Text GLabel 8550 6850 2    60   Input ~ 0
LVDSs2_N
Text GLabel 8550 6950 2    60   Input ~ 0
LVDSs2_P
Text GLabel 8550 7150 2    60   Input ~ 0
LVDSs1_N
Text GLabel 8550 7250 2    60   Input ~ 0
LVDSs1_P
Text GLabel 8550 7450 2    60   Input ~ 0
LVDSs0_N
Text GLabel 8550 7550 2    60   Input ~ 0
LVDSs0_P
$Comp
L PCIe-36-Axiom J1
U 1 1 5A484786
P 7700 4350
F 0 "J1" H 7650 4375 60  0000 C CNN
F 1 "Extension North" H 7650 4525 60  0000 C CNN
F 2 "pcie:PCIE-36-NOPEG" H 7350 4750 60  0001 C CNN
F 3 "" H 7350 4750 60  0001 C CNN
	1    7700 4350
	1    0    0    -1  
$EndComp
Text GLabel 6850 4200 0    60   Input ~ 0
IO7_N
Text GLabel 6850 4300 0    60   Input ~ 0
IO6_N
Text GLabel 6850 4400 0    60   Input ~ 0
IO5_N
Text GLabel 6850 4500 0    60   Input ~ 0
IO4_N
Text GLabel 6850 4600 0    60   Input ~ 0
IO3_N
Text GLabel 6850 4700 0    60   Input ~ 0
IO2_N
Text GLabel 6850 4800 0    60   Input ~ 0
IO1_N
Text GLabel 6850 4900 0    60   Input ~ 0
IO0_N
Text GLabel 6850 5100 0    60   Input ~ 0
SCL_N
Text GLabel 6850 5200 0    60   Input ~ 0
SDA_N
Text GLabel 6850 3550 0    60   Input ~ 0
LVDSn5_N
Text GLabel 6850 3650 0    60   Input ~ 0
LVDSn5_P
Text GLabel 8550 3550 2    60   Input ~ 0
LVDSn4_N
Text GLabel 8550 3650 2    60   Input ~ 0
LVDSn4_P
Text GLabel 1950 9950 0    60   Input ~ 0
LVDSn3_N
Text GLabel 1950 10050 0    60   Input ~ 0
LVDSn3_P
Text GLabel 1950 9750 0    60   Input ~ 0
LVDSn2_N
Text GLabel 1950 9850 0    60   Input ~ 0
LVDSn2_P
Text GLabel 8550 4700 2    60   Input ~ 0
LVDSn1_N
Text GLabel 8550 4800 2    60   Input ~ 0
LVDSn1_P
Text GLabel 8550 5000 2    60   Input ~ 0
LVDSn0_N
Text GLabel 8550 5100 2    60   Input ~ 0
LVDSn0_P
Text GLabel 1950 10550 0    60   Input ~ 0
LVDSn5_N
Text GLabel 1950 10650 0    60   Input ~ 0
LVDSn5_P
Text GLabel 1950 10350 0    60   Input ~ 0
LVDSn4_N
Text GLabel 1950 10450 0    60   Input ~ 0
LVDSn4_P
Text GLabel 1950 9450 0    60   Input ~ 0
LVDSn1_N
Text GLabel 1950 9550 0    60   Input ~ 0
LVDSn1_P
Text GLabel 1950 9250 0    60   Input ~ 0
LVDSn0_N
Text GLabel 1950 9350 0    60   Input ~ 0
LVDSn0_P
Text GLabel 3900 9450 2    60   Input ~ 0
LVDSs5_N
Text GLabel 3900 9550 2    60   Input ~ 0
LVDSs5_P
Text GLabel 3900 9750 2    60   Input ~ 0
LVDSs4_N
Text GLabel 3900 9850 2    60   Input ~ 0
LVDSs4_P
Text GLabel 3900 9250 2    60   Input ~ 0
LVDSs3_N
Text GLabel 3900 9350 2    60   Input ~ 0
LVDSs3_P
Text GLabel 3900 10550 2    60   Input ~ 0
LVDSs2_N
Text GLabel 3900 10650 2    60   Input ~ 0
LVDSs2_P
Text GLabel 3900 10350 2    60   Input ~ 0
LVDSs1_N
Text GLabel 3900 10450 2    60   Input ~ 0
LVDSs1_P
Text GLabel 3900 9950 2    60   Input ~ 0
LVDSs0_N
Text GLabel 3900 10050 2    60   Input ~ 0
LVDSs0_P
Text GLabel 8550 3850 2    60   Input ~ 0
LVDSn3_N
Text GLabel 8550 3950 2    60   Input ~ 0
LVDSn3_P
Text GLabel 8550 4400 2    60   Input ~ 0
LVDSn2_N
Text GLabel 8550 4500 2    60   Input ~ 0
LVDSn2_P
Text GLabel 3900 8950 2    60   Input ~ 0
IO7_S
Text GLabel 3900 9050 2    60   Input ~ 0
IO6_S
Text GLabel 3900 8750 2    60   Input ~ 0
IO5_S
Text GLabel 3900 8850 2    60   Input ~ 0
IO4_S
Text GLabel 3900 8550 2    60   Input ~ 0
IO3_S
Text GLabel 3900 8450 2    60   Input ~ 0
IO2_S
Text GLabel 3900 8350 2    60   Input ~ 0
IO1_S
Text GLabel 3900 8250 2    60   Input ~ 0
IO0_S
Text GLabel 1950 10850 0    60   Input ~ 0
SCL_N
Text GLabel 1950 10950 0    60   Input ~ 0
SDA_N
Text GLabel 1950 8950 0    60   Input ~ 0
IO7_N
Text GLabel 1950 9050 0    60   Input ~ 0
IO6_N
Text GLabel 1950 8750 0    60   Input ~ 0
IO5_N
Text GLabel 1950 8850 0    60   Input ~ 0
IO4_N
Text GLabel 1950 8450 0    60   Input ~ 0
IO3_N
Text GLabel 1950 8550 0    60   Input ~ 0
IO2_N
Text GLabel 1950 8250 0    60   Input ~ 0
IO1_N
Text GLabel 1950 8350 0    60   Input ~ 0
IO0_N
$Comp
L PMOD-Host-x2-GPIO J3
U 1 1 5A4D18A6
P 12650 1200
F 0 "J3" H 12650 1150 50  0000 C CNN
F 1 "PMODx2 North" V 12950 900 50  0001 C CNN
F 2 "pmod-conn_6x2:pmod_pin_array_6x2" H 12700 1500 60  0001 C CNN
F 3 "" H 12700 1500 60  0000 C CNN
	1    12650 1200
	1    0    0    -1  
$EndComp
Text GLabel 10800 850  0    60   BiDi ~ 0
PMOD0_N
Text GLabel 10800 1050 0    60   BiDi ~ 0
PMOD1_N
Text GLabel 10800 1150 0    60   BiDi ~ 0
PMOD2_N
Text GLabel 10800 1250 0    60   BiDi ~ 0
PMOD3_N
Text GLabel 10800 1350 0    60   BiDi ~ 0
PMOD4_N
Text GLabel 10800 1450 0    60   BiDi ~ 0
PMOD5_N
Text GLabel 10800 1550 0    60   BiDi ~ 0
PMOD6_N
Text GLabel 10800 1650 0    60   BiDi ~ 0
PMOD7_N
Text Notes 6000 3050 0    60   ~ 0
Plugin Connectors
Text Notes 10100 750  0    60   ~ 0
PMOD Connectors
Text GLabel 3900 7450 2    60   BiDi ~ 0
PMOD0_N
Text GLabel 3900 7350 2    60   BiDi ~ 0
PMOD1_N
Text GLabel 3900 7250 2    60   BiDi ~ 0
PMOD2_N
Text GLabel 3900 6650 2    60   BiDi ~ 0
PMOD3_N
Text GLabel 3900 6750 2    60   BiDi ~ 0
PMOD4_N
Text GLabel 3900 6850 2    60   BiDi ~ 0
PMOD5_N
Text GLabel 3900 6950 2    60   BiDi ~ 0
PMOD6_N
Text GLabel 3900 7150 2    60   BiDi ~ 0
PMOD7_N
Text GLabel 3900 6450 2    60   BiDi ~ 0
PMOD0_S
Text GLabel 3900 6350 2    60   BiDi ~ 0
PMOD1_S
Text GLabel 3900 6250 2    60   BiDi ~ 0
PMOD2_S
Text GLabel 3900 6150 2    60   BiDi ~ 0
PMOD3_S
Text GLabel 3900 5950 2    60   BiDi ~ 0
PMOD4_S
Text GLabel 3900 5850 2    60   BiDi ~ 0
PMOD5_S
Text GLabel 3900 5750 2    60   BiDi ~ 0
PMOD6_S
Text GLabel 3900 5650 2    60   BiDi ~ 0
PMOD7_S
Text GLabel 10800 3650 0    60   BiDi ~ 0
PMOD0_E
Text GLabel 10800 3850 0    60   BiDi ~ 0
PMOD1_E
Text GLabel 10800 3950 0    60   BiDi ~ 0
PMOD2_E
Text GLabel 10800 4050 0    60   BiDi ~ 0
PMOD3_E
Text GLabel 3900 8050 2    60   BiDi ~ 0
PMOD0_E
Text GLabel 3900 7950 2    60   BiDi ~ 0
PMOD1_E
Text GLabel 3900 7850 2    60   BiDi ~ 0
PMOD2_E
Text GLabel 3900 7750 2    60   BiDi ~ 0
PMOD3_E
Text GLabel 3900 10950 2    60   Input ~ 0
SCL_S
Text GLabel 3900 10850 2    60   Input ~ 0
SDA_S
$Comp
L LED D1
U 1 1 5A513BA1
P 13850 4150
F 0 "D1" H 13850 4250 50  0000 C CNN
F 1 "LED" H 13850 4050 50  0000 C CNN
F 2 "LEDs:LED_0603_HandSoldering" H 13850 4150 50  0001 C CNN
F 3 "" H 13850 4150 50  0001 C CNN
	1    13850 4150
	-1   0    0    1   
$EndComp
Text Label 4700 7650 2    60   ~ 0
1V8
Text Label 1100 7050 0    60   ~ 0
1V8
$Comp
L C C6
U 1 1 5A477706
P 7100 1150
F 0 "C6" H 7125 1250 50  0000 L CNN
F 1 "1µF" H 7125 1050 50  0000 L CNN
F 2 "Capacitors_SMD:C_0805_HandSoldering" H 7138 1000 50  0001 C CNN
F 3 "" H 7100 1150 50  0001 C CNN
	1    7100 1150
	1    0    0    -1  
$EndComp
$Comp
L PMOD-Host-x1-GPIO J5
U 1 1 5A53E548
P 12650 4000
F 0 "J5" H 12600 3950 50  0000 C CNN
F 1 "PMOD-Host-x1-GPIO" V 12900 4400 50  0001 C CNN
F 2 "Pin_Headers:Pin_Header_Straight_1x06_Pitch2.54mm" H 12700 4300 60  0001 C CNN
F 3 "" H 12700 4300 60  0000 C CNN
	1    12650 4000
	1    0    0    -1  
$EndComp
$Comp
L GNDA #PWR015
U 1 1 5A5438DB
P 6100 900
F 0 "#PWR015" H 6100 650 50  0001 C CNN
F 1 "GNDA" H 6100 750 50  0000 C CNN
F 2 "" H 6100 900 50  0001 C CNN
F 3 "" H 6100 900 50  0001 C CNN
	1    6100 900 
	1    0    0    -1  
$EndComp
$Comp
L GNDD #PWR016
U 1 1 5A543949
P 6400 900
F 0 "#PWR016" H 6400 650 50  0001 C CNN
F 1 "GNDD" H 6400 775 50  0000 C CNN
F 2 "" H 6400 900 50  0001 C CNN
F 3 "" H 6400 900 50  0001 C CNN
	1    6400 900 
	1    0    0    -1  
$EndComp
NoConn ~ 1950 11050
NoConn ~ 3900 11050
NoConn ~ 3900 5450
NoConn ~ 2100 4750
NoConn ~ 3800 1000
NoConn ~ 3800 1100
NoConn ~ 3800 1200
NoConn ~ 3800 1300
NoConn ~ 3800 1400
NoConn ~ 3800 1500
NoConn ~ 3800 1600
NoConn ~ 3800 1800
NoConn ~ 3800 1700
NoConn ~ 3800 1900
NoConn ~ 3800 2000
NoConn ~ 3800 2100
NoConn ~ 3800 2200
NoConn ~ 3800 2300
NoConn ~ 3800 2400
NoConn ~ 2100 950 
NoConn ~ 3800 3850
NoConn ~ 3800 3950
NoConn ~ 3800 4050
NoConn ~ 3800 4150
NoConn ~ 3800 4250
NoConn ~ 3800 4350
NoConn ~ 3800 4450
NoConn ~ 3800 4550
NoConn ~ 3800 4650
NoConn ~ 3800 4750
NoConn ~ 8550 6650
NoConn ~ 8550 4200
$Comp
L TXS0108E U3
U 1 1 5A5787CD
P 11350 1250
F 0 "U3" H 11350 600 60  0000 C CNN
F 1 "TXS0108E" H 11350 1800 60  0000 C CNN
F 2 "Housings_SSOP:TSSOP-20_4.4x6.5mm_Pitch0.65mm" H 11350 1250 60  0001 C CNN
F 3 "" H 11350 1250 60  0001 C CNN
	1    11350 1250
	1    0    0    -1  
$EndComp
Text Label 9950 950  0    60   ~ 0
1V8
$Comp
L PMOD-Host-x2-GPIO J4
U 1 1 5A58CAF7
P 12650 2600
F 0 "J4" H 12650 2550 50  0000 C CNN
F 1 "PMODx2 North" V 12950 2300 50  0001 C CNN
F 2 "pmod-conn_6x2:pmod_pin_array_6x2" H 12700 2900 60  0001 C CNN
F 3 "" H 12700 2900 60  0000 C CNN
	1    12650 2600
	1    0    0    -1  
$EndComp
Text GLabel 10800 2250 0    60   BiDi ~ 0
PMOD0_S
Text GLabel 10800 2450 0    60   BiDi ~ 0
PMOD1_S
Text GLabel 10800 2550 0    60   BiDi ~ 0
PMOD2_S
Text GLabel 10800 2650 0    60   BiDi ~ 0
PMOD3_S
Text GLabel 10800 2750 0    60   BiDi ~ 0
PMOD4_S
Text GLabel 10800 2850 0    60   BiDi ~ 0
PMOD5_S
Text GLabel 10800 2950 0    60   BiDi ~ 0
PMOD6_S
Text GLabel 10800 3050 0    60   BiDi ~ 0
PMOD7_S
$Comp
L GNDD #PWR017
U 1 1 5A58FFF7
P 12400 4550
F 0 "#PWR017" H 12400 4300 50  0001 C CNN
F 1 "GNDD" H 12400 4425 50  0000 C CNN
F 2 "" H 12400 4550 50  0001 C CNN
F 3 "" H 12400 4550 50  0001 C CNN
	1    12400 4550
	1    0    0    -1  
$EndComp
$Comp
L TXS0108E U5
U 1 1 5A59000A
P 11350 4050
F 0 "U5" H 11350 3400 60  0000 C CNN
F 1 "TXS0108E" H 11350 4600 60  0000 C CNN
F 2 "Housings_SSOP:TSSOP-20_4.4x6.5mm_Pitch0.65mm" H 11350 4050 60  0001 C CNN
F 3 "" H 11350 4050 60  0001 C CNN
	1    11350 4050
	1    0    0    -1  
$EndComp
$Comp
L TXS0108E U4
U 1 1 5A58CB10
P 11350 2650
F 0 "U4" H 11350 2000 60  0000 C CNN
F 1 "TXS0108E" H 11350 3200 60  0000 C CNN
F 2 "Housings_SSOP:TSSOP-20_4.4x6.5mm_Pitch0.65mm" H 11350 2650 60  0001 C CNN
F 3 "" H 11350 2650 60  0001 C CNN
	1    11350 2650
	1    0    0    -1  
$EndComp
Text GLabel 1950 5950 0    60   Input ~ 0
LED2
$Comp
L LED D2
U 1 1 5A5A487E
P 13850 4450
F 0 "D2" H 13850 4550 50  0000 C CNN
F 1 "LED" H 13850 4350 50  0000 C CNN
F 2 "LEDs:LED_0603_HandSoldering" H 13850 4450 50  0001 C CNN
F 3 "" H 13850 4450 50  0001 C CNN
	1    13850 4450
	-1   0    0    1   
$EndComp
$Comp
L R R9
U 1 1 5A5A4F9D
P 13550 4450
F 0 "R9" V 13630 4450 50  0000 C CNN
F 1 "100" V 13550 4450 50  0000 C CNN
F 2 "Resistors_SMD:R_0603_HandSoldering" V 13480 4450 50  0001 C CNN
F 3 "" H 13550 4450 50  0001 C CNN
	1    13550 4450
	0    -1   -1   0   
$EndComp
$Comp
L R R8
U 1 1 5A5A555D
P 13550 4150
F 0 "R8" V 13630 4150 50  0000 C CNN
F 1 "100" V 13550 4150 50  0000 C CNN
F 2 "Resistors_SMD:R_0603_HandSoldering" V 13480 4150 50  0001 C CNN
F 3 "" H 13550 4150 50  0001 C CNN
	1    13550 4150
	0    -1   -1   0   
$EndComp
Text GLabel 10800 4150 0    60   Input ~ 0
LED1
Text GLabel 10800 4250 0    60   Input ~ 0
LED2
Text Notes 13350 3900 0    60   ~ 0
LEDs
NoConn ~ 10800 4350
NoConn ~ 10800 4450
NoConn ~ 11950 4350
NoConn ~ 11950 4450
Text GLabel 1950 6450 0    60   Input ~ 0
LED1
$Comp
L GNDD #PWR018
U 1 1 5A4A8154
P 1350 10750
F 0 "#PWR018" H 1350 10500 50  0001 C CNN
F 1 "GNDD" H 1350 10625 50  0000 C CNN
F 2 "" H 1350 10750 50  0001 C CNN
F 3 "" H 1350 10750 50  0001 C CNN
	1    1350 10750
	1    0    0    -1  
$EndComp
$Comp
L GNDD #PWR019
U 1 1 5A484791
P 9150 5200
F 0 "#PWR019" H 9150 4950 50  0001 C CNN
F 1 "GNDD" H 9150 5075 50  0000 C CNN
F 2 "" H 9150 5200 50  0001 C CNN
F 3 "" H 9150 5200 50  0001 C CNN
	1    9150 5200
	1    0    0    -1  
$EndComp
Text Label 6150 4050 0    60   ~ 0
5V
Text Label 4750 10150 2    60   ~ 0
3V3
Text Label 1100 10150 0    60   ~ 0
3V3
Text Label 6150 6300 0    60   ~ 0
3V3
Text Label 6150 3850 0    60   ~ 0
3V3
Text Label 12000 3250 0    60   ~ 0
3V3
$Comp
L GNDD #PWR020
U 1 1 5A5E5EB3
P 2100 2950
F 0 "#PWR020" H 2100 2700 50  0001 C CNN
F 1 "GNDD" H 2100 2825 50  0000 C CNN
F 2 "" H 2100 2950 50  0001 C CNN
F 3 "" H 2100 2950 50  0001 C CNN
	1    2100 2950
	1    0    0    -1  
$EndComp
$Comp
L ar0330CM U1
U 1 1 5A471BC0
P 2950 2700
F 0 "U1" H 2950 2750 60  0000 C CNN
F 1 "ar0330CM" H 2900 2900 60  0000 C CNN
F 2 "parts:CLCC48_0.8mm" H 2800 4550 60  0001 C CNN
F 3 "" H 2800 4550 60  0001 C CNN
	1    2950 2700
	1    0    0    -1  
$EndComp
$Comp
L R R3
U 1 1 5A502FE9
P 3950 2700
F 0 "R3" V 4030 2700 50  0000 C CNN
F 1 "100" V 3950 2700 50  0000 C CNN
F 2 "Resistors_SMD:R_0603_HandSoldering" V 3880 2700 50  0001 C CNN
F 3 "" H 3950 2700 50  0000 C CNN
	1    3950 2700
	0    1    1    0   
$EndComp
$Comp
L R R4
U 1 1 5A503FAC
P 3950 2900
F 0 "R4" V 4030 2900 50  0000 C CNN
F 1 "100" V 3950 2900 50  0000 C CNN
F 2 "Resistors_SMD:R_0603_HandSoldering" V 3880 2900 50  0001 C CNN
F 3 "" H 3950 2900 50  0000 C CNN
	1    3950 2900
	0    1    1    0   
$EndComp
$Comp
L R R5
U 1 1 5A504CEB
P 3950 3100
F 0 "R5" V 4030 3100 50  0000 C CNN
F 1 "100" V 3950 3100 50  0000 C CNN
F 2 "Resistors_SMD:R_0603_HandSoldering" V 3880 3100 50  0001 C CNN
F 3 "" H 3950 3100 50  0000 C CNN
	1    3950 3100
	0    1    1    0   
$EndComp
$Comp
L R R6
U 1 1 5A504DD1
P 3950 3300
F 0 "R6" V 4030 3300 50  0000 C CNN
F 1 "100" V 3950 3300 50  0000 C CNN
F 2 "Resistors_SMD:R_0603_HandSoldering" V 3880 3300 50  0001 C CNN
F 3 "" H 3950 3300 50  0000 C CNN
	1    3950 3300
	0    1    1    0   
$EndComp
$Comp
L R R7
U 1 1 5A50518E
P 3950 3500
F 0 "R7" V 4030 3500 50  0000 C CNN
F 1 "100" V 3950 3500 50  0000 C CNN
F 2 "Resistors_SMD:R_0603_HandSoldering" V 3880 3500 50  0001 C CNN
F 3 "" H 3950 3500 50  0000 C CNN
	1    3950 3500
	0    1    1    0   
$EndComp
$Comp
L C C12
U 1 1 5A5C8DD4
P 8100 2350
F 0 "C12" H 8125 2450 50  0000 L CNN
F 1 ".1µF" H 8125 2250 50  0000 L CNN
F 2 "Capacitors_SMD:C_0805_HandSoldering" H 8138 2200 50  0001 C CNN
F 3 "" H 8100 2350 50  0001 C CNN
	1    8100 2350
	1    0    0    -1  
$EndComp
$Comp
L C C9
U 1 1 5A5C94AF
P 7400 2350
F 0 "C9" H 7425 2450 50  0000 L CNN
F 1 ".1µF" H 7425 2250 50  0000 L CNN
F 2 "Capacitors_SMD:C_0805_HandSoldering" H 7438 2200 50  0001 C CNN
F 3 "" H 7400 2350 50  0001 C CNN
	1    7400 2350
	1    0    0    -1  
$EndComp
$Comp
L C C20
U 1 1 5A5C9E96
P 5850 3900
F 0 "C20" H 5875 4000 50  0000 L CNN
F 1 "1µ" H 5875 3800 50  0000 L CNN
F 2 "Capacitors_SMD:C_0805_HandSoldering" H 5888 3750 50  0001 C CNN
F 3 "" H 5850 3900 50  0001 C CNN
	1    5850 3900
	1    0    0    -1  
$EndComp
$Comp
L C C22
U 1 1 5A5C9FF1
P 6050 3700
F 0 "C22" H 6075 3800 50  0000 L CNN
F 1 "1µ" H 6075 3600 50  0000 L CNN
F 2 "Capacitors_SMD:C_0805_HandSoldering" H 6088 3550 50  0001 C CNN
F 3 "" H 6050 3700 50  0001 C CNN
	1    6050 3700
	1    0    0    -1  
$EndComp
$Comp
L C C21
U 1 1 5A5CAB0D
P 5900 6350
F 0 "C21" H 5925 6450 50  0000 L CNN
F 1 "1µ" H 5925 6250 50  0000 L CNN
F 2 "Capacitors_SMD:C_0805_HandSoldering" H 5938 6200 50  0001 C CNN
F 3 "" H 5900 6350 50  0001 C CNN
	1    5900 6350
	1    0    0    -1  
$EndComp
$Comp
L C C23
U 1 1 5A5CABF5
P 6050 6150
F 0 "C23" H 6075 6250 50  0000 L CNN
F 1 "1µ" H 6075 6050 50  0000 L CNN
F 2 "Capacitors_SMD:C_0805_HandSoldering" H 6088 6000 50  0001 C CNN
F 3 "" H 6050 6150 50  0001 C CNN
	1    6050 6150
	1    0    0    -1  
$EndComp
$Comp
L C C26
U 1 1 5A5CC99D
P 11350 4700
F 0 "C26" H 11375 4800 50  0000 L CNN
F 1 "1µ" H 11375 4600 50  0000 L CNN
F 2 "Capacitors_SMD:C_0805_HandSoldering" H 11388 4550 50  0001 C CNN
F 3 "" H 11350 4700 50  0001 C CNN
	1    11350 4700
	0    1    1    0   
$EndComp
$Comp
L C C25
U 1 1 5A5CCC5F
P 11350 3350
F 0 "C25" H 11375 3450 50  0000 L CNN
F 1 "1µ" H 11375 3250 50  0000 L CNN
F 2 "Capacitors_SMD:C_0805_HandSoldering" H 11388 3200 50  0001 C CNN
F 3 "" H 11350 3350 50  0001 C CNN
	1    11350 3350
	0    1    1    0   
$EndComp
$Comp
L C C24
U 1 1 5A5CDBC9
P 11350 1950
F 0 "C24" H 11375 2050 50  0000 L CNN
F 1 "1µ" H 11375 1850 50  0000 L CNN
F 2 "Capacitors_SMD:C_0805_HandSoldering" H 11388 1800 50  0001 C CNN
F 3 "" H 11350 1950 50  0001 C CNN
	1    11350 1950
	0    1    1    0   
$EndComp
$Comp
L C C27
U 1 1 5A5D0812
P 12150 1950
F 0 "C27" H 12175 2050 50  0000 L CNN
F 1 "1µ" H 12175 1850 50  0000 L CNN
F 2 "Capacitors_SMD:C_0805_HandSoldering" H 12188 1800 50  0001 C CNN
F 3 "" H 12150 1950 50  0001 C CNN
	1    12150 1950
	0    1    1    0   
$EndComp
$Comp
L C C28
U 1 1 5A5D08E3
P 12150 3350
F 0 "C28" H 12175 3450 50  0000 L CNN
F 1 "1µ" H 12175 3250 50  0000 L CNN
F 2 "Capacitors_SMD:C_0805_HandSoldering" H 12188 3200 50  0001 C CNN
F 3 "" H 12150 3350 50  0001 C CNN
	1    12150 3350
	0    1    1    0   
$EndComp
$Comp
L C C29
U 1 1 5A5D09B7
P 12150 4700
F 0 "C29" H 12175 4800 50  0000 L CNN
F 1 "1µ" H 12175 4600 50  0000 L CNN
F 2 "Capacitors_SMD:C_0805_HandSoldering" H 12188 4550 50  0001 C CNN
F 3 "" H 12150 4700 50  0001 C CNN
	1    12150 4700
	0    1    1    0   
$EndComp
Connection ~ 3950 7050
Wire Wire Line
	3950 6550 3900 6550
Connection ~ 3950 6550
Wire Wire Line
	1350 10750 1950 10750
Connection ~ 2100 3400
Connection ~ 2100 2950
Wire Wire Line
	2100 2250 2100 2950
Wire Wire Line
	9150 5200 8550 5200
Wire Wire Line
	4500 10250 3900 10250
Wire Wire Line
	1100 10150 1950 10150
Wire Wire Line
	3900 10150 4750 10150
Wire Wire Line
	1200 1850 1200 5650
Wire Notes Line
	14150 3750 13250 3750
Wire Notes Line
	14150 4850 14150 3750
Wire Notes Line
	13250 4850 14150 4850
Wire Notes Line
	13250 3750 13250 4850
Wire Notes Line
	13000 4850 9850 4850
Wire Wire Line
	13400 4250 13400 4450
Connection ~ 14000 4450
Wire Wire Line
	14000 4550 14000 4150
Wire Wire Line
	12000 2250 12000 2050
Wire Wire Line
	11950 2250 12000 2250
Wire Wire Line
	12350 1850 12500 1850
Connection ~ 12400 3850
Connection ~ 12400 2450
Wire Wire Line
	10200 3750 10800 3750
Wire Wire Line
	9950 950  10800 950 
Wire Wire Line
	10200 2350 10800 2350
Connection ~ 10200 1750
Connection ~ 10200 3150
Connection ~ 10200 3750
Wire Wire Line
	10200 4550 10800 4550
Connection ~ 12350 3950
Wire Wire Line
	12000 3250 12500 3250
Connection ~ 12400 4550
Wire Wire Line
	11950 4550 14000 4550
Wire Wire Line
	12400 3850 12500 3850
Wire Wire Line
	12250 3950 12500 3950
Wire Wire Line
	12250 3750 12250 3950
Wire Wire Line
	11950 3750 12250 3750
Wire Wire Line
	12000 3450 12500 3450
Wire Wire Line
	12000 3650 12000 3450
Wire Wire Line
	11950 3650 12000 3650
Wire Wire Line
	12100 3550 12500 3550
Wire Wire Line
	12100 3850 12100 3550
Wire Wire Line
	11950 3850 12100 3850
Wire Wire Line
	12200 3650 12500 3650
Wire Wire Line
	12200 3950 12200 3650
Wire Wire Line
	11950 3950 12200 3950
Wire Wire Line
	12300 3750 12500 3750
Wire Wire Line
	12300 4050 12300 3750
Wire Wire Line
	11950 4050 12300 4050
Wire Wire Line
	11950 4150 13400 4150
Wire Wire Line
	11950 4250 13400 4250
Connection ~ 10200 2350
Wire Wire Line
	10200 3150 10800 3150
Connection ~ 12350 3250
Connection ~ 12350 2550
Connection ~ 12400 3150
Wire Wire Line
	11950 3150 12500 3150
Wire Wire Line
	12400 2450 12500 2450
Wire Wire Line
	12250 2550 12500 2550
Wire Wire Line
	12250 2350 12250 2550
Wire Wire Line
	11950 2350 12250 2350
Wire Wire Line
	12000 2050 12500 2050
Wire Wire Line
	12100 2150 12500 2150
Wire Wire Line
	12100 2450 12100 2150
Wire Wire Line
	11950 2450 12100 2450
Wire Wire Line
	12200 2250 12500 2250
Wire Wire Line
	12200 2550 12200 2250
Wire Wire Line
	11950 2550 12200 2550
Wire Wire Line
	12300 2350 12500 2350
Wire Wire Line
	12300 2650 12300 2350
Wire Wire Line
	11950 2650 12300 2650
Wire Wire Line
	11950 2750 12500 2750
Wire Wire Line
	11950 2850 12500 2850
Wire Wire Line
	11950 2950 12500 2950
Wire Wire Line
	11950 3050 12500 3050
Connection ~ 10200 950 
Wire Wire Line
	10200 950  10200 4550
Wire Wire Line
	10800 1750 10200 1750
Connection ~ 12350 1850
Connection ~ 12350 1150
Wire Wire Line
	12350 1150 12350 4700
Connection ~ 12400 1750
Wire Wire Line
	11950 1750 12500 1750
Wire Wire Line
	12400 1050 12400 4550
Wire Wire Line
	12500 1050 12400 1050
Wire Wire Line
	12250 1150 12500 1150
Wire Wire Line
	12250 950  12250 1150
Wire Wire Line
	11950 950  12250 950 
Wire Wire Line
	12000 650  12500 650 
Wire Wire Line
	12000 850  12000 650 
Wire Wire Line
	11950 850  12000 850 
Wire Wire Line
	12100 750  12500 750 
Wire Wire Line
	12100 1050 12100 750 
Wire Wire Line
	11950 1050 12100 1050
Wire Wire Line
	12200 850  12500 850 
Wire Wire Line
	12200 1150 12200 850 
Wire Wire Line
	11950 1150 12200 1150
Wire Wire Line
	12300 950  12500 950 
Wire Wire Line
	12300 1250 12300 950 
Wire Wire Line
	11950 1250 12300 1250
Wire Wire Line
	11950 1350 12500 1350
Wire Wire Line
	11950 1450 12500 1450
Wire Wire Line
	11950 1550 12500 1550
Wire Wire Line
	11950 1650 12500 1650
Wire Wire Line
	6100 900  6400 900 
Wire Wire Line
	3900 7650 4700 7650
Wire Wire Line
	1100 7050 1950 7050
Wire Notes Line
	500  4950 5700 4950
Connection ~ 6500 6400
Wire Wire Line
	6850 6400 6500 6400
Connection ~ 6500 6300
Wire Wire Line
	6500 7450 6850 7450
Wire Wire Line
	6500 6300 6500 7450
Connection ~ 6500 3950
Wire Wire Line
	6850 3950 6500 3950
Connection ~ 6500 3850
Wire Wire Line
	6500 5000 6850 5000
Wire Wire Line
	6500 3850 6500 5000
Wire Wire Line
	6050 3850 6850 3850
Wire Wire Line
	6050 6300 6850 6300
Wire Notes Line
	13000 500  13000 4850
Wire Notes Line
	9850 500  13000 500 
Wire Notes Line
	9850 4850 9850 500 
Wire Notes Line
	9800 8250 5750 8250
Wire Notes Line
	9800 2800 9800 8250
Wire Notes Line
	5750 2800 9800 2800
Wire Notes Line
	5750 8250 5750 2800
Connection ~ 9150 3750
Wire Wire Line
	9150 3750 8550 3750
Wire Wire Line
	5850 4050 6850 4050
Connection ~ 9150 5200
Connection ~ 9150 4300
Wire Wire Line
	9150 4300 8550 4300
Connection ~ 6250 3450
Wire Wire Line
	6250 3750 6850 3750
Connection ~ 9150 4900
Connection ~ 9150 4600
Wire Wire Line
	9150 4900 8550 4900
Connection ~ 9150 4050
Wire Wire Line
	9150 4600 8550 4600
Connection ~ 9150 3450
Wire Wire Line
	9150 4050 8550 4050
Wire Wire Line
	6250 3450 6850 3450
Wire Wire Line
	6250 3250 6250 3750
Wire Wire Line
	5850 3250 9150 3250
Wire Wire Line
	9150 3250 9150 5200
Wire Wire Line
	8550 3450 9150 3450
Connection ~ 9150 6200
Wire Wire Line
	9150 6200 8550 6200
Wire Wire Line
	5900 6500 6850 6500
Connection ~ 9150 7650
Connection ~ 9150 6750
Wire Wire Line
	9150 6750 8550 6750
Connection ~ 6250 5900
Wire Wire Line
	6250 6200 6850 6200
Connection ~ 9150 7350
Wire Wire Line
	9150 7650 8550 7650
Connection ~ 9150 7050
Wire Wire Line
	9150 7350 8550 7350
Connection ~ 9150 6500
Wire Wire Line
	9150 7050 8550 7050
Connection ~ 9150 5900
Wire Wire Line
	9150 6500 8550 6500
Wire Wire Line
	6250 5900 6850 5900
Wire Wire Line
	6250 5700 6250 6200
Wire Wire Line
	5900 5700 9150 5700
Wire Wire Line
	9150 5700 9150 7650
Wire Wire Line
	8550 5900 9150 5900
Wire Wire Line
	4500 7050 4500 10750
Wire Wire Line
	1350 5450 1350 10750
Wire Wire Line
	3900 5000 3900 5350
Wire Wire Line
	1950 5000 1950 5350
Wire Wire Line
	2100 2650 2100 2750
Connection ~ 4500 10750
Connection ~ 1350 10750
Wire Wire Line
	1950 5450 1350 5450
Connection ~ 1350 5550
Wire Wire Line
	1950 5550 1350 5550
Connection ~ 3950 6050
Wire Wire Line
	3900 5550 3950 5550
Wire Wire Line
	3950 6050 3900 6050
Connection ~ 4500 10250
Wire Wire Line
	4500 10750 3900 10750
Connection ~ 4500 9650
Connection ~ 4500 9150
Wire Wire Line
	4500 9650 3900 9650
Connection ~ 4500 8650
Wire Wire Line
	4500 9150 3900 9150
Connection ~ 4500 8150
Wire Wire Line
	4500 8650 3900 8650
Connection ~ 4500 7550
Wire Wire Line
	4500 8150 3900 8150
Connection ~ 4500 7050
Wire Wire Line
	4500 7550 3900 7550
Wire Wire Line
	3900 7050 4500 7050
Wire Wire Line
	3950 5550 3950 7050
Connection ~ 1350 10250
Connection ~ 1350 9650
Wire Wire Line
	1350 10250 1950 10250
Connection ~ 1350 9150
Wire Wire Line
	1350 9650 1950 9650
Connection ~ 1350 8650
Wire Wire Line
	1350 9150 1950 9150
Connection ~ 1350 8150
Wire Wire Line
	1350 8650 1950 8650
Connection ~ 1350 7650
Wire Wire Line
	1350 8150 1950 8150
Connection ~ 1350 7150
Wire Wire Line
	1350 7650 1950 7650
Connection ~ 1350 6550
Wire Wire Line
	1350 7150 1950 7150
Connection ~ 1350 6050
Wire Wire Line
	1350 6550 1950 6550
Wire Wire Line
	1350 9650 1350 10250
Wire Wire Line
	1350 6050 1350 7650
Wire Wire Line
	1350 6050 1950 6050
Connection ~ 3900 5250
Connection ~ 3900 5150
Wire Wire Line
	1950 5000 3900 5000
Connection ~ 1950 5150
Connection ~ 1950 5250
Wire Wire Line
	2000 800  2100 800 
Wire Wire Line
	2000 1000 2000 800 
Wire Wire Line
	800  1000 2000 1000
Wire Wire Line
	1900 650  2100 650 
Wire Wire Line
	1900 900  1900 650 
Wire Wire Line
	700  900  1900 900 
Wire Notes Line
	500  11200 500  4950
Wire Notes Line
	5700 11200 500  11200
Wire Notes Line
	5700 4950 5700 11200
Wire Notes Line
	500  500  500  4900
Wire Notes Line
	5700 500  500  500 
Wire Notes Line
	5700 4900 5700 500 
Wire Notes Line
	500  4900 5700 4900
Connection ~ 8450 800 
Connection ~ 1850 2250
Wire Wire Line
	1650 2200 1650 2250
Wire Wire Line
	700  900  700  6350
Wire Wire Line
	800  1000 800  6250
Wire Wire Line
	900  1100 900  6150
Wire Wire Line
	2100 1100 900  1100
Connection ~ 1650 1650
Wire Wire Line
	1000 1650 1000 5850
Connection ~ 1850 1750
Wire Wire Line
	1100 1750 1100 5750
Wire Wire Line
	2100 1850 1200 1850
Wire Wire Line
	1100 1750 2100 1750
Wire Wire Line
	1850 1900 1850 1750
Wire Wire Line
	1950 5150 1750 5150
Wire Wire Line
	8850 2200 8850 1950
Wire Wire Line
	8300 2200 8300 1950
Connection ~ 1850 3650
Wire Wire Line
	1850 2200 1850 3650
Connection ~ 7100 1000
Connection ~ 7100 800 
Wire Wire Line
	8300 800  8650 800 
Wire Notes Line
	9800 500  9800 1500
Wire Wire Line
	9400 2200 9400 1950
Wire Wire Line
	6550 2200 6550 1950
Wire Wire Line
	6000 2200 6000 1950
Wire Wire Line
	7100 600  7100 1000
Connection ~ 7000 1850
Wire Wire Line
	7000 1600 7000 2200
Wire Wire Line
	7000 1850 7750 1850
Wire Wire Line
	7750 1850 7750 2200
Connection ~ 9400 2500
Connection ~ 9400 2200
Connection ~ 9600 2200
Wire Wire Line
	9600 1750 9600 2200
Wire Wire Line
	9600 2200 9400 2200
Wire Wire Line
	9600 2500 9400 2500
Connection ~ 8850 2500
Connection ~ 8850 2200
Connection ~ 8300 2500
Connection ~ 8300 2200
Connection ~ 7750 2500
Connection ~ 7750 2200
Connection ~ 7000 2500
Connection ~ 7000 2200
Connection ~ 6750 2200
Connection ~ 6550 2200
Wire Wire Line
	6750 2200 6550 2200
Connection ~ 9050 2200
Wire Wire Line
	9050 1500 9050 2200
Wire Wire Line
	9050 2200 8850 2200
Wire Wire Line
	9050 2500 8850 2500
Connection ~ 8500 2200
Wire Wire Line
	8500 1650 8500 2200
Wire Wire Line
	8500 2200 8300 2200
Wire Wire Line
	8500 2500 8300 2500
Connection ~ 7950 2200
Wire Wire Line
	7950 1800 7950 2200
Wire Wire Line
	7750 2200 8100 2200
Wire Wire Line
	7750 2500 8100 2500
Connection ~ 7200 2200
Wire Wire Line
	7200 2200 7200 1950
Wire Wire Line
	7000 2200 7400 2200
Wire Wire Line
	7000 2500 7400 2500
Wire Wire Line
	6750 1750 6750 2200
Connection ~ 6550 2500
Wire Wire Line
	6750 2500 6550 2500
Wire Wire Line
	1500 4050 2100 4050
Wire Wire Line
	1500 4650 2100 4650
Wire Wire Line
	1500 3300 2100 3300
Wire Wire Line
	1500 4350 2100 4350
Wire Wire Line
	1500 4250 2100 4250
Connection ~ 6200 2200
Wire Wire Line
	6200 1950 6200 2200
Connection ~ 6000 2200
Wire Wire Line
	6200 2200 6000 2200
Wire Notes Line
	5750 2000 5750 2000
Wire Notes Line
	9800 500  5750 500 
Wire Notes Line
	9800 2750 9800 1450
Wire Notes Line
	5750 2750 9800 2750
Wire Notes Line
	5750 500  5750 2750
Connection ~ 6000 2500
Wire Wire Line
	6200 2500 6000 2500
Wire Wire Line
	1500 3650 2100 3650
Wire Wire Line
	1650 2250 1850 2250
Wire Wire Line
	1350 4150 2100 4150
Connection ~ 2100 2450
Wire Wire Line
	2100 1200 1950 1200
Connection ~ 2100 3650
Wire Wire Line
	1000 1650 2100 1650
Wire Wire Line
	1650 1650 1650 1900
Wire Wire Line
	1500 4550 2100 4550
Wire Wire Line
	2100 3650 2100 3750
Connection ~ 2100 3300
Wire Wire Line
	2100 3200 2100 3400
Connection ~ 2100 2850
Connection ~ 2100 2750
Connection ~ 2100 2650
Connection ~ 2100 2550
Connection ~ 7950 2500
Connection ~ 7200 2500
Connection ~ 6150 3850
Connection ~ 6150 4050
Wire Wire Line
	5850 3750 5850 3250
Connection ~ 6250 3250
Wire Wire Line
	6050 3550 6050 3250
Connection ~ 6050 3250
Connection ~ 6150 6300
Connection ~ 6150 6500
Wire Wire Line
	5900 6200 5900 5700
Connection ~ 6250 5700
Wire Wire Line
	6050 6000 6050 5700
Connection ~ 6050 5700
Wire Wire Line
	11500 4700 12000 4700
Wire Wire Line
	11950 4700 11950 4550
Wire Wire Line
	11200 4700 10800 4700
Wire Wire Line
	10800 4700 10800 4550
Connection ~ 10800 4550
Connection ~ 11950 4550
Wire Wire Line
	11200 3350 10800 3350
Wire Wire Line
	10800 3350 10800 3150
Wire Wire Line
	11500 3350 12000 3350
Wire Wire Line
	11950 3350 11950 3150
Connection ~ 11950 3150
Connection ~ 10800 3150
Wire Wire Line
	11200 1950 10800 1950
Wire Wire Line
	10800 1950 10800 1750
Wire Wire Line
	11500 1950 12000 1950
Wire Wire Line
	11950 1950 11950 1750
Connection ~ 11950 1750
Connection ~ 10800 1750
Connection ~ 11950 1950
Wire Wire Line
	12300 1950 12350 1950
Connection ~ 12350 1950
Connection ~ 11950 3350
Wire Wire Line
	12300 3350 12350 3350
Connection ~ 12350 3350
Wire Wire Line
	12350 4700 12300 4700
Connection ~ 11950 4700
Wire Wire Line
	3800 2650 4200 2650
Wire Wire Line
	4100 2650 4100 2700
Wire Wire Line
	3800 2750 3800 2700
Wire Wire Line
	3800 2950 3800 2900
Wire Wire Line
	3800 3150 3800 3100
Wire Wire Line
	3800 3350 3800 3300
Wire Wire Line
	3800 3550 3800 3500
Wire Wire Line
	3800 3450 4200 3450
Wire Wire Line
	4100 3450 4100 3500
Wire Wire Line
	3800 3250 4200 3250
Wire Wire Line
	4100 3250 4100 3300
Wire Wire Line
	3800 3050 4200 3050
Wire Wire Line
	4100 3050 4100 3100
Wire Wire Line
	3800 2850 4200 2850
Wire Wire Line
	4100 2850 4100 2900
Text GLabel 4200 2650 2    60   Input ~ 0
SLVS0_P
Text GLabel 4200 2750 2    60   Input ~ 0
SLVS0_N
Text GLabel 4200 2850 2    60   Input ~ 0
SLVS1_P
Text GLabel 4200 2950 2    60   Input ~ 0
SLVS1_N
Text GLabel 4200 3050 2    60   Input ~ 0
SLVS2_P
Text GLabel 4200 3150 2    60   Input ~ 0
SLVS2_N
Text GLabel 4200 3250 2    60   Input ~ 0
SLVS3_P
Text GLabel 4200 3350 2    60   Input ~ 0
SLVS3_N
Text GLabel 4200 3450 2    60   Input ~ 0
SLVSC_P
Text GLabel 4200 3550 2    60   Input ~ 0
SLVSC_N
Wire Wire Line
	3800 2750 4200 2750
Connection ~ 4100 2650
Connection ~ 4100 2850
Wire Wire Line
	4200 2950 3800 2950
Wire Wire Line
	4200 3150 3800 3150
Connection ~ 4100 3050
Connection ~ 4100 3250
Connection ~ 4100 3450
Wire Wire Line
	3800 3550 4200 3550
Wire Wire Line
	3800 3350 4200 3350
Connection ~ 3800 2750
Connection ~ 3800 2950
Connection ~ 3800 3150
Connection ~ 3800 3350
Connection ~ 3800 3550
Text GLabel 1950 7850 0    60   Input ~ 0
SLVS0_P
Text GLabel 1950 7750 0    60   Input ~ 0
SLVS0_N
Text GLabel 1950 7550 0    60   Input ~ 0
SLVS1_P
Text GLabel 1950 7450 0    60   Input ~ 0
SLVS1_N
Text GLabel 1950 6950 0    60   Input ~ 0
SLVS2_P
Text GLabel 1950 6850 0    60   Input ~ 0
SLVS2_N
Text GLabel 1950 6750 0    60   Input ~ 0
SLVS3_P
Text GLabel 1950 6650 0    60   Input ~ 0
SLVS3_N
Text GLabel 1950 7350 0    60   Input ~ 0
SLVSC_P
Text GLabel 1950 7250 0    60   Input ~ 0
SLVSC_N
Text GLabel 3800 650  2    60   Input ~ 0
SHUTTER
Text GLabel 3800 750  2    60   Input ~ 0
FLASH
Text GLabel 1950 7950 0    60   Input ~ 0
SHUTTER
Text GLabel 1950 8050 0    60   Input ~ 0
FLASH
Wire Wire Line
	700  6350 1950 6350
Wire Wire Line
	800  6250 1950 6250
Wire Wire Line
	900  6150 1950 6150
Wire Wire Line
	1000 5850 1950 5850
Wire Wire Line
	1100 5750 1950 5750
Wire Wire Line
	1200 5650 1950 5650
$EndSCHEMATC
